<?xml version="1.0" encoding="utf-8"?>
<!-- Generator: Adobe Illustrator 16.0.0, SVG Export Plug-In . SVG Version: 6.00 Build 0)  -->
<!DOCTYPE svg PUBLIC "-//W3C//DTD SVG 1.1//EN" "http://www.w3.org/Graphics/SVG/1.1/DTD/svg11.dtd">
<svg version="1.1" id="Layer_1" xmlns="http://www.w3.org/2000/svg" xmlns:xlink="http://www.w3.org/1999/xlink" x="0px" y="0px"
	 width="1900px" height="760px" viewBox="0 0 1900 760" enable-background="new 0 0 1900 760" xml:space="preserve">
<g>
	<g>
		<path fill="#9E0B0F" d="M1090.181,382.189c-0.247-0.586-0.392-1.228-0.445-1.609c-0.199-1.458-0.465-2.855-0.789-4.078
			l-9.336-35.391c-1.121-4.254-4.586-10.281-7.695-13.394l-9.145-9.156c-3.109-3.114-5.652-9.262-5.652-13.661v-4.984
			c0-4.402-2.461-10.629-5.465-13.844l-26.148-27.937c-3.008-3.215-7.16-2.668-9.234,1.215l-11.461,21.492
			c-2.07,3.879-5.73,4.043-8.133,0.355l-25.762-39.511c-2.402-3.684-6.703-3.961-9.555-0.61l-19.395,22.781
			c-2.852,3.352-8.445,4.567-12.434,2.7l-6.945-3.25c-3.984-1.864-10.211-1.352-13.84,1.14l-28.183,19.383
			c-3.629,2.492-7.875,7.898-9.438,12.012l-10.379,27.293c-1.566,4.113-6.425,7.824-10.808,8.25l-0.657,0.062
			c-4.378,0.426-9.601,3.977-11.605,7.895l-18.695,36.574c-0.446,0.871-0.879,1.859-1.289,2.902
			c-0.071,0.183-0.201,0.409-0.377,0.617c-1.073,3.157-2.179,6.702-2.08,9.972c0.037,1.22,0.136,2.388,0.518,3.561
			c0.113,0.348,0.521,0.943,0.587,1.25c0.272,0.224,0.551,0.44,0.84,0.643c0.086,0.06,0.164,0.125,0.244,0.188
			c5.412,3.329,11.969,6.535,23.15,6.535c12.993,0,19.75-4.328,25.707-8.148c5.235-3.352,9.758-6.25,19.235-6.25
			c9.476,0,13.996,2.898,19.23,6.25c5.961,3.82,12.715,8.148,25.711,8.148c12.992,0,19.75-4.328,25.707-8.148
			c5.234-3.352,9.758-6.25,19.234-6.25c9.48,0,14,2.898,19.234,6.25c5.961,3.82,12.715,8.148,25.707,8.148
			c12.996,0,19.754-4.328,25.711-8.148c5.238-3.352,9.758-6.25,19.238-6.25s14,2.898,19.238,6.25
			c0.067,0.043,0.136,0.087,0.203,0.13c0.986,0.293,1.972,0.624,3.023,0.936c2.246,0.666,3.169,0.159,3.125-2.4
			C1090.821,388.7,1090.229,385.489,1090.181,382.189z M1074.052,375.951c-2.578-0.484-5.465-0.765-8.762-0.765
			c-12.996,0-19.754,4.328-25.715,8.148c-5.234,3.355-9.754,6.254-19.234,6.254s-14-2.898-19.234-6.254
			c-5.961-3.816-12.715-8.148-25.707-8.148c-12.996,0-19.75,4.328-25.71,8.148c-5.235,3.355-9.754,6.254-19.235,6.254
			c-9.476,0-13.996-2.898-19.23-6.254c-5.961-3.816-12.715-8.148-25.711-8.148c-12.992,0-19.746,4.328-25.707,8.148
			c-5.234,3.355-9.754,6.254-19.231,6.254c-6.351,0-7.957-0.574-11.562-2.441c-1.867-0.867-1.516-2.137-1.059-2.844
			c0.653-1.004,1.239-1.996,1.711-2.926l15.707-30.723c2.004-3.918,6.227-7.375,9.391-7.683c3.16-0.305,8.535,1.73,12.101,4.308
			l13.329,9.625c3.566,2.574,8.066,2.492,10-0.179c1.929-2.676,0.593-6.973-2.973-9.551l-11.387-8.219
			c-3.566-2.578-5.203-8.051-3.64-12.16l8.816-23.192c1.566-4.109,5.813-9.515,9.437-12.007l19.438-13.368
			c3.625-2.492,9.852-3.007,13.836-1.14l9.016,4.219c3.984,1.867,9.578,0.652,12.429-2.7l14.918-17.519
			c2.852-3.352,7.152-3.074,9.555,0.609l20.695,31.746c2.402,3.684,2.719,9.903,0.703,13.813l-3.004,5.824
			c-2.016,3.91-1.266,8.348,1.668,9.859c2.934,1.512,6.98-0.449,9-4.363l8.449-16.387c2.016-3.91,5.359-10.289,7.43-14.168
			l4.387-8.226c2.07-3.883,6.227-4.434,9.23-1.219l11.453,12.235c3.008,3.214,5.465,9.441,5.465,13.843v5.211
			c0,4.399,2.547,10.547,5.652,13.66l10.367,10.383c3.109,3.113,6.574,9.141,7.695,13.395l6.969,26.406
			C1076.563,376.326,1074.911,376.111,1074.052,375.951z"/>
	</g>
</g>
</svg>
